v 0.3 0.215 -0.3
v 0.3 -0.385 -0.3
v 0.3 0.215 0.3
v 0.3 -0.385 0.3
v -0.3 0.215 -0.3
v -0.3 -0.385 -0.3
v -0.3 0.215 0.3
v -0.3 -0.385 0.3
vt 0 1
vt 0 0
vt 1 0
vt 1 1
vt 0 1
vt 0 0
vt 1 0
vt 1 1
vt 0 1
vt 0 0
vt 1 0
vt 1 1
vt 1 0
vt 1 1
vt 0 1
vt 0 0
vt 1 0
vt 1 1
vt 0 1
vt 0 0
g 1
s off
f 1/1 5/2 7/3 3/4
g 2
f 6/5 2/6 4/7 8/8
g 3
f 4/7 3/4 7/9 8/10
g 4
f 6/11 5/12 1/1 2/6
g 5
f 2/13 1/14 3/15 4/16
g 6
f 8/17 7/18 5/19 6/20
