<?xml version="1.0" encoding="UTF-8" standalone="no"?>
<!-- Created with Inkscape (http://www.inkscape.org/) -->

<svg
   xmlns:dc="http://purl.org/dc/elements/1.1/"
   xmlns:cc="http://creativecommons.org/ns#"
   xmlns:rdf="http://www.w3.org/1999/02/22-rdf-syntax-ns#"
   xmlns:svg="http://www.w3.org/2000/svg"
   xmlns="http://www.w3.org/2000/svg"
   xmlns:xlink="http://www.w3.org/1999/xlink"
   xmlns:sodipodi="http://sodipodi.sourceforge.net/DTD/sodipodi-0.dtd"
   xmlns:inkscape="http://www.inkscape.org/namespaces/inkscape"
   width="143.29617mm"
   height="146.903mm"
   viewBox="0 0 143.29617 146.90301"
   version="1.1"
   id="svg8"
   inkscape:version="0.92.4 (5da689c313, 2019-01-14)"
   sodipodi:docname="huds.svg">
  <defs
     id="defs2">
    <linearGradient
       inkscape:collect="always"
       id="linearGradient4554">
      <stop
         style="stop-color:#fbfbfb;stop-opacity:0.50196081"
         offset="0"
         id="stop4550" />
      <stop
         style="stop-color:#000000;stop-opacity:0.97072071"
         offset="1"
         id="stop4552" />
    </linearGradient>
    <linearGradient
       inkscape:collect="always"
       xlink:href="#linearGradient4554"
       id="linearGradient4795"
       gradientUnits="userSpaceOnUse"
       gradientTransform="matrix(1.215871,-4.5376919,4.5376921,1.2158709,-890.18695,-534.21892)"
       x1="-178.47861"
       y1="257.21585"
       x2="-178.47861"
       y2="269.08185" />
    <linearGradient
       inkscape:collect="always"
       xlink:href="#linearGradient4554"
       id="linearGradient4832"
       gradientUnits="userSpaceOnUse"
       gradientTransform="matrix(-3.3218212,-3.321821,3.3218211,-3.3218211,-1387.3266,849.95437)"
       x1="-178.47861"
       y1="257.21585"
       x2="-178.47861"
       y2="269.08185" />
    <linearGradient
       inkscape:collect="always"
       xlink:href="#linearGradient4554"
       id="linearGradient4844"
       gradientUnits="userSpaceOnUse"
       gradientTransform="matrix(3.3218212,3.321821,-3.3218211,3.3218211,1507.2715,326.85229)"
       x1="-178.47861"
       y1="257.21585"
       x2="-178.47861"
       y2="269.08185" />
    <linearGradient
       inkscape:collect="always"
       xlink:href="#linearGradient4554"
       id="linearGradient4881"
       gradientUnits="userSpaceOnUse"
       gradientTransform="matrix(-1.2158709,4.5376919,-4.5376921,-1.2158709,1010.1318,1711.0255)"
       x1="-178.47861"
       y1="257.21585"
       x2="-178.47861"
       y2="269.08185" />
    <linearGradient
       inkscape:collect="always"
       xlink:href="#linearGradient4554"
       id="linearGradient4906"
       gradientUnits="userSpaceOnUse"
       gradientTransform="matrix(-4.5376921,1.2158709,-1.215871,-4.5376919,-437.16724,1972.5766)"
       x1="-178.47861"
       y1="257.21585"
       x2="-178.47861"
       y2="269.08185" />
    <linearGradient
       inkscape:collect="always"
       xlink:href="#linearGradient4554"
       id="linearGradient4941"
       gradientUnits="userSpaceOnUse"
       gradientTransform="matrix(4.5376921,-1.2158709,1.215871,4.5376919,557.11215,-795.76995)"
       x1="-178.47861"
       y1="257.21585"
       x2="-178.47861"
       y2="269.08185" />
    <linearGradient
       inkscape:collect="always"
       xlink:href="#linearGradient4554"
       id="linearGradient4941-9"
       gradientUnits="userSpaceOnUse"
       gradientTransform="matrix(1.2005977,-0.32169917,0.3216992,1.2005976,-37.584982,-74.839596)"
       x1="-178.47861"
       y1="257.21585"
       x2="-178.47861"
       y2="269.08185" />
    <linearGradient
       inkscape:collect="always"
       xlink:href="#linearGradient4554"
       id="linearGradient2578"
       gradientUnits="userSpaceOnUse"
       gradientTransform="matrix(0.3216992,-1.2005976,1.2005977,0.32169917,-420.5162,-5.637553)"
       x1="-178.47861"
       y1="257.21585"
       x2="-178.47861"
       y2="269.08185" />
    <linearGradient
       inkscape:collect="always"
       xlink:href="#linearGradient4554"
       id="linearGradient2580"
       gradientUnits="userSpaceOnUse"
       gradientTransform="matrix(-0.87889851,-0.87889846,0.87889849,-0.87889849,-552.05106,360.59163)"
       x1="-178.47861"
       y1="257.21585"
       x2="-178.47861"
       y2="269.08185" />
    <linearGradient
       inkscape:collect="always"
       xlink:href="#linearGradient4554"
       id="linearGradient2582"
       gradientUnits="userSpaceOnUse"
       gradientTransform="matrix(0.87889851,0.87889846,-0.87889849,0.87889849,213.81134,222.18754)"
       x1="-178.47861"
       y1="257.21585"
       x2="-178.47861"
       y2="269.08185" />
    <linearGradient
       inkscape:collect="always"
       xlink:href="#linearGradient4554"
       id="linearGradient2584"
       gradientUnits="userSpaceOnUse"
       gradientTransform="matrix(-0.32169917,1.2005976,-1.2005977,-0.32169917,82.276465,588.4167)"
       x1="-178.47861"
       y1="257.21585"
       x2="-178.47861"
       y2="269.08185" />
    <linearGradient
       inkscape:collect="always"
       xlink:href="#linearGradient4554"
       id="linearGradient2586"
       gradientUnits="userSpaceOnUse"
       gradientTransform="matrix(-1.2005977,0.32169917,-0.3216992,-1.2005976,-300.65473,657.61876)"
       x1="-178.47861"
       y1="257.21585"
       x2="-178.47861"
       y2="269.08185" />
    <clipPath
       clipPathUnits="userSpaceOnUse"
       id="clipPath2930">
      <path
         style="color:#000000;display:inline;overflow:visible;visibility:visible;fill:#7f7f7f;fill-opacity:1;fill-rule:evenodd;stroke:none;stroke-width:0.26458329;stroke-linecap:round;stroke-linejoin:round;stroke-miterlimit:4;stroke-dasharray:none;stroke-dashoffset:0;stroke-opacity:1;marker:none;marker-start:none;marker-mid:none;marker-end:none;enable-background:accumulate"
         d="m -125.77361,275.99814 -0.96067,0.25735 c -0.14284,1.64264 -0.28556,3.28523 -0.4284,4.92786 -0.0404,0.46458 -0.081,0.92912 -0.12143,1.39371 l -0.36484,0.42013 -3.12229,3.59513 1.34307,3.04478 0.24184,0.54777 2.22984,1.3994 3.1595,1.98231 -1.4795,3.69796 5.6007,2.43086 -3.46853,-0.21032 -3.50573,-0.21239 -0.10593,4.43797 -1.79627,-4.01526 1.58026,-4.038 0.32194,-0.8232 -3.24424,-2.0991 -0.31006,-0.20051 -0.0382,-0.0248 -6.97425,2.53576 -1.05679,6.23476 -0.61908,-6.49779 -0.015,-0.15968 6.34018,-4.22662 -1.1281,-1.46244 -1.72496,-2.23604 2.6417,-2.95847 -3.3414,-4.9692 -6.1035,1.63555 -4.40748,16.45068 12.04215,12.04215 16.45016,-4.408 4.408,-16.45015 z"
         id="path2932"
         inkscape:connector-curvature="0" />
    </clipPath>
    <linearGradient
       inkscape:collect="always"
       xlink:href="#linearGradient4554"
       id="linearGradient4941-7"
       gradientUnits="userSpaceOnUse"
       gradientTransform="translate(14.123879,-20.599149)"
       x1="-178.47861"
       y1="257.21585"
       x2="-178.47861"
       y2="269.08185" />
    <linearGradient
       inkscape:collect="always"
       xlink:href="#linearGradient4554"
       id="linearGradient3204"
       gradientUnits="userSpaceOnUse"
       gradientTransform="translate(14.123879,-20.599149)"
       x1="-178.47861"
       y1="257.21585"
       x2="-178.47861"
       y2="269.08185" />
    <linearGradient
       inkscape:collect="always"
       xlink:href="#linearGradient4554"
       id="linearGradient3206"
       gradientUnits="userSpaceOnUse"
       gradientTransform="translate(14.123879,-20.599149)"
       x1="-178.47861"
       y1="257.21585"
       x2="-178.47861"
       y2="269.08185" />
    <linearGradient
       inkscape:collect="always"
       xlink:href="#linearGradient4554"
       id="linearGradient3208"
       gradientUnits="userSpaceOnUse"
       gradientTransform="translate(14.123879,-20.599149)"
       x1="-178.47861"
       y1="257.21585"
       x2="-178.47861"
       y2="269.08185" />
    <linearGradient
       inkscape:collect="always"
       xlink:href="#linearGradient4554"
       id="linearGradient3210"
       gradientUnits="userSpaceOnUse"
       gradientTransform="translate(14.123879,-20.599149)"
       x1="-178.47861"
       y1="257.21585"
       x2="-178.47861"
       y2="269.08185" />
    <linearGradient
       inkscape:collect="always"
       xlink:href="#linearGradient4554"
       id="linearGradient3212"
       gradientUnits="userSpaceOnUse"
       gradientTransform="translate(14.123879,-20.599149)"
       x1="-178.47861"
       y1="257.21585"
       x2="-178.47861"
       y2="269.08185" />
    <clipPath
       clipPathUnits="userSpaceOnUse"
       id="clipPath3700">
      <path
         style="color:#000000;display:inline;overflow:visible;visibility:visible;fill:#808080;fill-opacity:0.95671979;fill-rule:evenodd;stroke:none;stroke-width:0.26458329;stroke-linecap:round;stroke-linejoin:round;stroke-miterlimit:4;stroke-dasharray:none;stroke-dashoffset:0;stroke-opacity:1;marker:none;marker-start:none;marker-mid:none;marker-end:none;enable-background:accumulate"
         d="m -125.77361,315.9404 -3.84783,14.36243 c 0.45884,-0.15243 0.92344,-0.18086 1.35547,-0.0186 0.58114,0.21825 0.87133,0.70016 1.00304,1.32499 0.21204,1.00589 0.0144,2.38141 -0.0605,3.63957 -0.0868,1.45971 -0.006,2.75884 1.09606,3.12074 0.46912,0.15413 0.75888,-0.43752 1.10484,-0.91984 v -5.3e-4 c 0.19744,-0.27522 0.41299,-0.51534 0.69143,-0.55862 0.74972,-0.11654 1.75337,0.17765 2.11357,0.84542 0.35356,0.65546 0.0847,1.42415 -0.31006,2.20865 -0.6342,1.2602 -1.59723,2.56106 -0.85266,3.49747 0.83331,1.04801 3.06756,1.05073 4.01577,0.10541 0.0759,-0.0757 0.14247,-0.15451 0.20464,-0.23512 1.69462,-2.19715 -1.55128,-6.15893 -0.41599,-8.85218 0.9637,-2.28624 3.23736,-0.96708 5.34747,-4.2478 l 0.59738,-2.22932 z m 0,0 -16.45016,4.408 -4.40748,16.45016 12.04215,12.04267 2.19884,-0.58911 c 0.70967,-1.24044 -0.0865,-3.05255 -0.7984,-4.63641 -0.74587,-1.65939 -1.39785,-3.06763 -0.11834,-3.29127 0.47656,-0.0833 0.65832,0.32005 0.76377,0.88109 0.17447,0.92823 0.13853,2.2899 0.87385,2.60604 0.68812,0.29583 1.7842,-0.0432 2.13321,-0.7059 0.97069,-1.84323 -0.69666,-3.90004 -1.9203,-5.95623 -0.8045,-1.35187 -1.41883,-2.70371 -0.95963,-3.99407 0.0219,-0.0616 0.0498,-0.12421 0.076,-0.18655 0.23391,-0.55673 0.63089,-1.13366 1.11725,-1.61954 0.4755,-0.47505 1.03319,-0.85774 1.60093,-1.04645 z"
         id="path3702"
         inkscape:connector-curvature="0" />
    </clipPath>
    <filter
       inkscape:collect="always"
       style="color-interpolation-filters:sRGB"
       id="filter1692"
       x="-0.13891412"
       width="1.2778282"
       y="-0.073342598"
       height="1.1466852">
      <feGaussianBlur
         inkscape:collect="always"
         stdDeviation="5.1121294"
         id="feGaussianBlur1694" />
    </filter>
    <mask
       maskUnits="userSpaceOnUse"
       id="mask1696">
      <g
         id="g1702"
         style="stroke-width:0.99999994">
        <circle
           r="19.853638"
           cy="290.07083"
           cx="-169.29341"
           id="circle1698"
           style="opacity:0.5;vector-effect:none;fill:#ffffff;fill-opacity:1;stroke:#ffffff;stroke-width:1.99999988;stroke-linecap:round;stroke-linejoin:round;stroke-miterlimit:4;stroke-dasharray:none;stroke-dashoffset:0;stroke-opacity:1;paint-order:normal" />
        <path
           sodipodi:nodetypes="ccccccccccccccccccccccccccccccccccccc"
           inkscape:connector-curvature="0"
           id="path1700"
           transform="matrix(0.26458333,0,0,0.26458333,-201.57008,217.93825)"
           d="m 135.67383,216.41016 7.13289,-43.90992 -62.96811,13.91492 20.36256,39.50086 1.16406,1.73046 11.46289,17.04883 -9.98437,11.18164 10.7832,13.97852 -23.962888,15.97461 0.05664,0.60351 2.339844,24.5586 3.994141,-23.56446 26.359373,-9.58398 0.14453,0.0937 1.17188,0.75781 0.002,0.002 12.25977,7.93164 -1.2168,3.11132 -5.9707,15.26172 6.78906,15.17578 0.39844,-16.77343 13.25,0.80273 13.10937,0.79492 -21.16797,-9.1875 5.5918,-13.97656 -20.36719,-12.78125 -0.91406,-2.07226 -5.07812,-11.50586 13.17968,-15.17579 c 0.15239,-1.75328 0.30472,-3.50651 0.45703,-5.25976 v -0.002 c 0.47963,-5.51305 0.96006,-11.02595 1.43946,-16.53907 z m 32.48633,106.71484 -62.17383,16.66016 62.17383,-16.65821 z"
           style="color:#000000;display:inline;overflow:visible;visibility:visible;fill:#ffffff;fill-opacity:1;fill-rule:evenodd;stroke:#ffffff;stroke-width:6.29291344;stroke-linecap:round;stroke-linejoin:round;stroke-miterlimit:4;stroke-dasharray:none;stroke-dashoffset:0;stroke-opacity:1;marker:none;marker-start:none;marker-mid:none;marker-end:none;filter:url(#filter1692);enable-background:accumulate" />
      </g>
    </mask>
    <filter
       inkscape:collect="always"
       style="color-interpolation-filters:sRGB"
       id="filter1730"
       x="-0.13178836"
       width="1.2635767"
       y="-0.13221232"
       height="1.2644246">
      <feGaussianBlur
         inkscape:collect="always"
         stdDeviation="4.2262104"
         id="feGaussianBlur1732" />
    </filter>
    <mask
       maskUnits="userSpaceOnUse"
       id="mask1738">
      <g
         id="g1744"
         style="stroke-width:0.99999994"
         transform="translate(-6.4583338e-7,-95.524078)">
        <circle
           r="24.846071"
           cy="332.33237"
           cx="-169.0612"
           id="circle1740"
           style="opacity:0.5;vector-effect:none;fill:#ffffff;fill-opacity:0.97000002;stroke:#ffffff;stroke-width:1.66499996;stroke-linecap:round;stroke-linejoin:round;stroke-miterlimit:4;stroke-dasharray:none;stroke-dashoffset:0;stroke-opacity:1;paint-order:normal" />
        <path
           transform="matrix(0.26458333,0,0,0.26458333,-201.57008,217.93825)"
           id="path1742"
           d="m 184.82031,415.91602 -2.20312,0.58984 0.002,0.002 2.20117,-0.58984 z m 0,0.002 -2.01367,7.51367 c -1.06004,1.74768 -2.13423,3.16736 -3.20703,4.34766 -0.89182,0.98118 -1.7821,1.79037 -2.66602,2.47265 -0.29878,0.23063 -0.5939,0.42792 -0.89062,0.63086 -0.20429,0.13983 -0.40825,0.28409 -0.61133,0.41211 -0.27065,0.17051 -0.53854,0.32679 -0.80664,0.47852 -0.18554,0.10509 -0.37056,0.20951 -0.55469,0.30664 -0.29741,0.15673 -0.59153,0.30457 -0.88476,0.44336 -0.13769,0.0653 -0.27349,0.12757 -0.41016,0.18945 -0.31301,0.14151 -0.62261,0.2813 -0.92969,0.4082 -0.0604,0.025 -0.11759,0.0477 -0.17773,0.0723 -1.66651,0.67882 -3.24001,1.19832 -4.65039,1.88867 -0.0857,0.042 -0.16748,0.0894 -0.25196,0.13281 -0.28286,0.1452 -0.55933,0.29973 -0.82812,0.46485 -0.11854,0.0729 -0.23396,0.15089 -0.34961,0.22851 -0.22323,0.14963 -0.44038,0.3105 -0.65234,0.48047 -0.17508,0.14053 -0.35061,0.28081 -0.51758,0.4375 -0.0458,0.0429 -0.0935,0.0827 -0.13867,0.12695 -0.24895,0.24411 -0.48571,0.5125 -0.71485,0.80079 -0.0344,0.0433 -0.0695,0.0864 -0.10351,0.13086 -0.22787,0.29791 -0.44612,0.61948 -0.65235,0.9707 -0.0321,0.0547 -0.0622,0.11381 -0.0937,0.16992 -0.20952,0.37221 -0.41093,0.76676 -0.5957,1.20508 -0.13636,0.32349 -0.25535,0.65156 -0.35937,0.98437 -0.031,0.099 -0.0519,0.20099 -0.0801,0.30078 -0.0679,0.24029 -0.13677,0.47998 -0.18946,0.72461 -0.0231,0.107 -0.0364,0.21643 -0.0566,0.32422 -0.0439,0.23358 -0.0879,0.46795 -0.11914,0.70508 -0.0213,0.16184 -0.0331,0.32683 -0.0488,0.49024 -0.018,0.18721 -0.0379,0.37333 -0.0488,0.5625 -0.008,0.14163 -0.009,0.28505 -0.0137,0.42773 -0.007,0.23425 -0.0161,0.46818 -0.0137,0.70508 9.1e-4,0.0893 0.008,0.17989 0.01,0.26953 0.007,0.27299 0.0148,0.54618 0.0332,0.82227 0.008,0.11806 0.0214,0.23686 0.0312,0.35546 0.0213,0.25554 0.0443,0.51174 0.0742,0.76954 0.0132,0.11352 0.0282,0.22785 0.043,0.34179 0.0303,0.2336 0.063,0.46796 0.0996,0.70313 0.0506,0.32628 0.12217,0.65744 0.18359,0.98632 0.0866,0.46312 0.16894,0.92542 0.27344,1.39258 0.0594,0.26579 0.12728,0.53403 0.19141,0.80078 0.12613,0.52401 0.25435,1.04786 0.39453,1.57422 0.14089,0.5297 0.29599,1.05771 0.44531,1.58789 0.45702,1.62081 0.92203,3.23854 1.34766,4.82813 0,0 0,0.002 0,0.002 0.16075,0.60042 0.30535,1.1945 0.44531,1.78516 0.0498,0.2106 0.10007,0.42175 0.14648,0.63086 0.10893,0.48994 0.20066,0.97258 0.28711,1.45312 0.0604,0.33627 0.12271,0.67295 0.16992,1.00391 0.54057,3.77978 0.17698,7.20019 -2.44726,9.8164 -3.58379,3.57283 -12.02822,3.5606 -15.17774,-0.40039 -0.16169,-0.20336 -0.29552,-0.41283 -0.41601,-0.625 -0.0403,-0.0709 -0.0735,-0.14305 -0.10938,-0.21484 -0.0727,-0.14555 -0.13993,-0.29214 -0.19531,-0.44141 -0.0295,-0.0794 -0.0553,-0.15981 -0.0801,-0.24023 -0.0473,-0.15377 -0.0863,-0.30946 -0.11718,-0.4668 -0.0148,-0.0755 -0.0318,-0.15032 -0.043,-0.22656 -0.0276,-0.18797 -0.0422,-0.37973 -0.0488,-0.57227 -0.002,-0.0439 -0.007,-0.0867 -0.008,-0.13085 -0.003,-0.23521 0.01,-0.47352 0.0352,-0.71485 0.01,-0.0943 0.0273,-0.19 0.041,-0.28515 0.0204,-0.1407 0.0418,-0.28132 0.0703,-0.42383 0.024,-0.12028 0.0506,-0.24178 0.0801,-0.36328 0.0243,-0.0999 0.0543,-0.20015 0.082,-0.30078 0.11074,-0.40238 0.24133,-0.80912 0.40039,-1.22266 0.19275,-0.50042 0.41941,-1.00846 0.66406,-1.52149 0.12474,-0.26186 0.26032,-0.52667 0.39453,-0.79101 0.14876,-0.29273 0.29631,-0.5858 0.45313,-0.88086 0.22638,-0.42625 0.45574,-0.85395 0.68945,-1.2832 0.46356,-0.85087 0.92716,-1.70517 1.35352,-2.55469 0.003,-0.006 0.005,-0.0118 0.008,-0.0176 0.10473,-0.20897 0.20159,-0.41676 0.30078,-0.625 0.099,-0.20791 0.19692,-0.41613 0.28906,-0.62305 0.0974,-0.2185 0.18713,-0.43523 0.2754,-0.65234 0.0951,-0.2343 0.18102,-0.46693 0.26367,-0.69922 0.0636,-0.17848 0.1303,-0.35806 0.18554,-0.53516 0.12704,-0.40823 0.23573,-0.81351 0.31055,-1.21289 0.0594,-0.31543 0.0963,-0.62683 0.11719,-0.93554 0.003,-0.0503 0.006,-0.10029 0.008,-0.15039 0.0144,-0.31462 0.0129,-0.62731 -0.0195,-0.9336 -0.0318,-0.30007 -0.0956,-0.59375 -0.17773,-0.88476 -0.028,-0.0989 -0.0576,-0.19712 -0.0918,-0.29492 -0.0223,-0.0639 -0.0433,-0.12799 -0.0684,-0.19141 -0.0734,-0.18557 -0.15425,-0.36964 -0.25195,-0.55078 -1.36135,-2.52386 -5.1547,-3.63383 -7.98829,-3.19336 -0.15943,0.0248 -0.31177,0.0723 -0.46093,0.12891 -0.0514,0.0196 -0.10212,0.0413 -0.15235,0.0645 -0.10057,0.0459 -0.19857,0.0995 -0.29492,0.1582 -0.0488,0.03 -0.0987,0.0569 -0.14648,0.0899 -0.11979,0.0821 -0.23563,0.17439 -0.34961,0.27343 -0.001,0.001 -0.003,0.003 -0.004,0.004 -0.20136,0.17665 -0.39344,0.37839 -0.58008,0.5957 -0.17683,0.20485 -0.34634,0.42845 -0.51367,0.65625 -0.0267,0.0364 -0.0555,0.0687 -0.082,0.10547 -0.53653,0.74368 -1.03805,1.55088 -1.5625,2.21875 -0.0503,0.0642 -0.10159,0.12425 -0.15234,0.18555 -0.0861,0.10357 -0.17181,0.20909 -0.25977,0.30273 -0.002,0.002 -0.004,0.004 -0.006,0.006 -0.13512,0.14411 -0.27294,0.27382 -0.41406,0.38867 -0.0573,0.0464 -0.11725,0.0803 -0.17578,0.1211 -0.10484,0.0735 -0.21103,0.14004 -0.32031,0.19336 -0.10353,0.0502 -0.20826,0.099 -0.31641,0.1289 -0.0111,0.003 -0.022,0.007 -0.0332,0.01 -0.13515,0.0344 -0.2745,0.0482 -0.41797,0.0469 -0.0309,-2.7e-4 -0.0624,-0.004 -0.0937,-0.006 -0.1466,-0.01 -0.2966,-0.0306 -0.45313,-0.082 -0.28602,-0.094 -0.55009,-0.20751 -0.80078,-0.33398 -0.0983,-0.0496 -0.18614,-0.10972 -0.2793,-0.16406 -0.14775,-0.0863 -0.29269,-0.17543 -0.42773,-0.27344 -0.0871,-0.0631 -0.17,-0.12952 -0.25195,-0.19727 -0.13243,-0.10971 -0.25938,-0.22412 -0.37891,-0.3457 -0.0699,-0.0709 -0.13946,-0.14204 -0.20508,-0.2168 -0.10756,-0.12289 -0.20619,-0.25368 -0.30273,-0.38672 -0.0664,-0.0912 -0.13585,-0.17959 -0.19727,-0.27539 -0.0757,-0.11855 -0.14256,-0.24577 -0.21094,-0.37109 -0.14452,-0.26389 -0.27468,-0.54194 -0.38867,-0.83398 -0.0289,-0.0743 -0.0609,-0.14473 -0.0879,-0.22071 -0.0645,-0.18077 -0.11935,-0.37047 -0.17383,-0.56055 -0.024,-0.084 -0.0502,-0.16619 -0.0723,-0.25195 -0.0547,-0.21139 -0.10262,-0.42897 -0.14649,-0.65039 -0.0118,-0.0598 -0.0241,-0.11921 -0.0352,-0.17969 -0.0442,-0.24109 -0.0824,-0.48669 -0.11524,-0.73828 -0.003,-0.0207 -0.005,-0.0417 -0.008,-0.0625 -0.1437,-1.13412 -0.17565,-2.37296 -0.14844,-3.66601 6.7e-4,-0.0313 -7.4e-4,-0.0605 0,-0.0918 0.0152,-0.65115 0.0476,-1.31737 0.0879,-1.99219 9.5e-4,-0.0159 0.001,-0.031 0.002,-0.0469 3.5e-4,-0.006 0.002,-0.0118 0.002,-0.0176 0.0897,-1.48137 0.21112,-2.99428 0.33008,-4.50586 0.0458,-0.59451 0.0881,-1.18654 0.125,-1.77344 0.0322,-0.49775 0.0592,-0.99069 0.0801,-1.47851 0.0104,-0.25349 0.021,-0.50786 0.0273,-0.75782 0.0178,-0.64802 0.0226,-1.28517 0.006,-1.90234 -8e-5,-0.003 8e-5,-0.005 0,-0.008 -0.0313,-1.07354 -0.12348,-2.09244 -0.30469,-3.03125 h 0.002 c 0,0 0,-0.002 0,-0.002 h -0.002 c -0.0594,-0.30756 -0.12937,-0.60526 -0.20898,-0.89454 0,0 0,-0.002 0,-0.002 0,0 0,-0.002 0,-0.002 -0.0727,-0.26363 -0.15685,-0.5168 -0.24805,-0.76367 -0.0188,-0.0505 -0.037,-0.10065 -0.0566,-0.15039 -0.0836,-0.21364 -0.17605,-0.41974 -0.27539,-0.61915 -0.0343,-0.0683 -0.0712,-0.13459 -0.10742,-0.20117 -0.0929,-0.17196 -0.1905,-0.34019 -0.29688,-0.5 -0.061,-0.091 -0.12779,-0.17677 -0.19336,-0.26367 -0.10051,-0.13404 -0.20266,-0.26678 -0.31445,-0.39062 -0.0905,-0.0997 -0.19091,-0.1904 -0.28906,-0.28321 -0.0981,-0.0932 -0.19278,-0.18935 -0.29883,-0.27539 -0.14955,-0.12076 -0.3146,-0.22801 -0.48047,-0.33398 -0.0782,-0.0501 -0.14851,-0.1076 -0.23047,-0.1543 -0.25808,-0.14663 -0.53322,-0.27718 -0.83008,-0.38867 -0.1524,-0.0572 -0.30648,-0.10521 -0.46093,-0.15039 -0.034,-0.01 -0.0674,-0.0239 -0.10157,-0.0332 -0.001,-3.6e-4 -0.003,-0.002 -0.004,-0.002 -0.0692,-0.019 -0.13938,-0.0302 -0.20899,-0.0469 -0.12602,-0.0299 -0.25179,-0.0597 -0.3789,-0.082 -0.33501,-0.0595 -0.67464,-0.0862 -1.01563,-0.0957 -0.0633,-0.002 -0.12604,-0.008 -0.18945,-0.008 -0.0343,-6e-5 -0.0691,0.007 -0.10352,0.008 -0.37467,0.006 -0.75075,0.0338 -1.1289,0.0937 -0.40826,0.0647 -0.81792,0.15929 -1.22657,0.28125 -0.0587,0.0175 -0.1171,0.0419 -0.17578,0.0605 -0.22826,0.0726 -0.45632,0.14721 -0.68359,0.23633 -0.19124,0.075 -0.38221,0.16198 -0.57227,0.24804 -0.13587,0.0615 -0.27113,0.12447 -0.40625,0.19141 -0.20554,0.10182 -0.40995,0.20661 -0.61328,0.32031 -0.0918,0.0513 -0.18216,0.10847 -0.27343,0.16211 -0.37826,0.22231 -0.75194,0.4637 -1.11915,0.72266 -0.1094,0.0771 -0.21989,0.15232 -0.32812,0.23242 -0.20313,0.15039 -0.40299,0.30659 -0.60156,0.4668 -0.0511,0.0412 -0.10162,0.0832 -0.15235,0.125 -0.481,0.39638 -0.9493,0.81701 -1.39648,1.26172 -0.47929,0.47662 -0.93633,0.97601 -1.36524,1.49218 -0.008,0.01 -0.0154,0.0196 -0.0234,0.0293 -1.28614,1.55338 -2.32168,3.25106 -2.97266,4.89063 -0.0593,0.14906 -0.13106,0.29948 -0.18359,0.44726 -0.12564,0.35305 -0.22411,0.70711 -0.3086,1.0625 -0.027,0.11369 -0.0454,0.22788 -0.0684,0.3418 -0.0493,0.24447 -0.0917,0.48889 -0.12304,0.73437 -0.0166,0.13064 -0.0313,0.26167 -0.043,0.39258 -0.0212,0.23656 -0.0334,0.47352 -0.0391,0.71094 -0.003,0.12886 -0.009,0.25762 -0.008,0.38672 0.003,0.25835 0.0175,0.51808 0.0371,0.77734 0.008,0.10559 0.0107,0.21067 0.0215,0.31641 2.6e-4,0.003 -2.7e-4,0.005 0,0.008 0.0343,0.33684 0.0861,0.67351 0.14648,1.01172 0.0321,0.17865 0.0724,0.35811 0.11133,0.53711 0.0363,0.16773 0.0732,0.33588 0.11523,0.5039 0.0592,0.23553 0.12341,0.47098 0.19336,0.70704 0.0193,0.0652 0.0405,0.13004 0.0606,0.19531 0.54406,1.76505 1.37931,3.54343 2.35156,5.32617 0.11731,0.21534 0.23032,0.43104 0.35156,0.64648 0.32198,0.57155 0.65296,1.14502 0.9961,1.7168 0.008,0.0131 0.0156,0.0259 0.0234,0.0391 0,0 0.002,0.002 0.002,0.002 2.169,3.61014 4.65535,7.21663 6.31055,10.74218 0.0323,0.0688 0.064,0.13832 0.0957,0.20704 0.12799,0.27793 0.25052,0.55518 0.36719,0.83203 0.0716,0.16943 0.13812,0.33881 0.20507,0.50781 0.0985,0.24915 0.19539,0.49794 0.28321,0.74609 0.0724,0.20419 0.13453,0.40786 0.19922,0.61133 0.0668,0.21063 0.13931,0.42102 0.19726,0.63086 0.10507,0.3791 0.1937,0.75647 0.26758,1.13281 0.005,0.0253 0.0128,0.0509 0.0176,0.0762 0.0278,0.14651 0.0417,0.29146 0.0645,0.4375 0.0433,0.27716 0.0833,0.55459 0.10742,0.83008 0.014,0.16201 0.0164,0.32297 0.0234,0.48438 0.0117,0.26516 0.0178,0.52948 0.01,0.79297 -0.005,0.15863 -0.0169,0.3166 -0.0293,0.47461 -0.0207,0.26463 -0.0531,0.52822 -0.0957,0.79101 -0.0324,0.19879 -0.0619,0.39801 -0.10743,0.59571 -0.0137,0.0599 -0.026,0.1199 -0.041,0.17968 -0.0808,0.32204 -0.17894,0.64391 -0.29688,0.96289 -0.0215,0.0582 -0.0475,0.11577 -0.0703,0.17383 -0.1291,0.32903 -0.2719,0.65684 -0.44336,0.98242 -1.31909,2.50466 -5.46173,3.78611 -8.0625,2.66797 -0.15075,-0.0648 -0.2916,-0.14327 -0.42578,-0.23047 -0.0543,-0.0352 -0.10256,-0.0786 -0.1543,-0.11718 -0.0774,-0.058 -0.15473,-0.1163 -0.22656,-0.18164 -0.053,-0.048 -0.10224,-0.10053 -0.15234,-0.15235 -0.0614,-0.0638 -0.12248,-0.12797 -0.17969,-0.19726 -0.0561,-0.0676 -0.10977,-0.13833 -0.16211,-0.21094 -0.0251,-0.0351 -0.0499,-0.0712 -0.0742,-0.10742 -0.31436,-0.46565 -0.552,-1.02969 -0.74804,-1.64453 -0.0409,-0.1295 -0.0784,-0.26214 -0.11524,-0.39649 -0.0755,-0.27261 -0.14774,-0.54708 -0.20898,-0.83594 -0.34774,-1.64002 -0.50247,-3.49196 -0.75586,-5.10742 v -0.002 -0.002 c -0.18279,-1.16418 -0.42533,-2.19524 -0.83789,-2.92773 -0.0288,-0.0503 -0.0554,-0.10502 -0.0859,-0.15234 -0.2165,-0.34103 -0.47601,-0.6057 -0.79688,-0.76758 -0.013,-0.006 -0.0258,-0.0134 -0.0391,-0.0195 -0.0628,-0.0297 -0.12985,-0.0542 -0.19726,-0.0762 -0.0371,-0.0118 -0.0748,-0.0218 -0.11329,-0.0312 -0.057,-0.0143 -0.11551,-0.0282 -0.17578,-0.0371 -0.0402,-0.006 -0.0833,-0.006 -0.125,-0.01 -0.19075,-0.0159 -0.39144,-0.0118 -0.61523,0.0273 -0.29351,0.0513 -0.55556,0.12163 -0.79688,0.20508 -0.0795,0.0275 -0.14467,0.0629 -0.21875,0.0937 -0.15107,0.063 -0.30055,0.12648 -0.42968,0.20313 -0.0762,0.0451 -0.1402,0.0987 -0.20899,0.14844 -0.10597,0.0768 -0.20977,0.1547 -0.29883,0.24218 -0.0572,0.0561 -0.10573,0.11736 -0.15625,0.17774 -0.0803,0.0962 -0.15487,0.19601 -0.21875,0.30273 -0.0396,0.0661 -0.0758,0.13501 -0.10937,0.20508 -0.0554,0.11597 -0.10316,0.23687 -0.14258,0.36328 -0.0227,0.0725 -0.0449,0.14486 -0.0625,0.2207 -0.0302,0.13044 -0.0505,0.26824 -0.0664,0.40821 -0.01,0.0847 -0.0227,0.16777 -0.0273,0.25586 -0.009,0.16347 -0.004,0.33509 0.004,0.50976 0.003,0.0677 4.7e-4,0.13186 0.006,0.20117 0.0196,0.2514 0.0529,0.51145 0.10156,0.78321 0.0501,0.27983 0.1158,0.57134 0.19336,0.87109 0.10647,0.41194 0.25349,0.85502 0.4043,1.30078 0.15298,0.45175 0.3261,0.91849 0.51562,1.40039 0.0702,0.17873 0.13265,0.35271 0.20703,0.53516 0.26855,0.65802 0.55624,1.33384 0.86524,2.0332 0.33984,0.76917 0.69733,1.56 1.05859,2.36524 0.98288,2.19201 1.98464,4.48985 2.72852,6.74804 0.48238,1.4644 0.85061,2.91 1.03125,4.30078 0.004,0.0273 0.008,0.0548 0.0117,0.082 0.0399,0.32022 0.0674,0.6356 0.0859,0.94921 0.002,0.0351 0.004,0.0704 0.006,0.10547 0.0146,0.28536 0.0186,0.56672 0.0137,0.84571 -0.001,0.0736 -0.001,0.14752 -0.004,0.2207 -0.01,0.26723 -0.0327,0.53058 -0.0625,0.79101 -0.007,0.0652 -0.0147,0.13053 -0.0234,0.19532 -0.034,0.25108 -0.0786,0.49828 -0.13281,0.74218 -0.009,0.0424 -0.0134,0.0868 -0.0234,0.12891 l -0.008,0.002 c -0.19381,0.81063 -0.49161,1.58424 -0.94336,2.29883 L 168.16254,478.09183 184.8227,415.918 Z"
           style="color:#000000;display:inline;overflow:visible;visibility:visible;fill:#ffffff;fill-opacity:1;fill-rule:evenodd;stroke:#ffffff;stroke-width:8.18267727;stroke-linecap:round;stroke-linejoin:round;stroke-miterlimit:4;stroke-dasharray:none;stroke-dashoffset:0;stroke-opacity:1;marker:none;marker-start:none;marker-mid:none;marker-end:none;filter:url(#filter1730);enable-background:accumulate"
           inkscape:connector-curvature="0" />
      </g>
    </mask>
  </defs>
  <sodipodi:namedview
     id="base"
     pagecolor="#ffffff"
     bordercolor="#666666"
     borderopacity="1.0"
     inkscape:pageopacity="0.0"
     inkscape:pageshadow="2"
     inkscape:zoom="0.733287"
     inkscape:cx="57.103263"
     inkscape:cy="314.80002"
     inkscape:document-units="mm"
     inkscape:current-layer="layer1"
     showgrid="false"
     inkscape:snap-bbox="true"
     inkscape:object-paths="true"
     inkscape:snap-global="false"
     fit-margin-top="16"
     fit-margin-left="16"
     fit-margin-right="16"
     fit-margin-bottom="16"
     inkscape:bbox-paths="false"
     inkscape:bbox-nodes="false"
     inkscape:snap-bbox-edge-midpoints="false"
     inkscape:snap-bbox-midpoints="false"
     inkscape:snap-center="true"
     inkscape:window-width="1366"
     inkscape:window-height="718"
     inkscape:window-x="0"
     inkscape:window-y="21"
     inkscape:window-maximized="1"
     inkscape:pagecheckerboard="true" />
  <metadata
     id="metadata5">
    <rdf:RDF>
      <cc:Work
         rdf:about="">
        <dc:format>image/svg+xml</dc:format>
        <dc:type
           rdf:resource="http://purl.org/dc/dcmitype/StillImage" />
        <dc:title />
      </cc:Work>
    </rdf:RDF>
  </metadata>
  <g
     inkscape:label="Layer 1"
     inkscape:groupmode="layer"
     id="layer1"
     transform="translate(201.57008,-217.93825)">
    <g
       id="g4961"
       inkscape:export-filename="/home/warr/git/gitlab.com/sztest/nodecore/mods/nc_player_hud/textures/nc_player_hud_sel_burn.png"
       inkscape:export-xdpi="494.09723"
       inkscape:export-ydpi="494.09723"
       transform="translate(0,95.524079)"
       mask="url(#mask1738)">
      <g
         style="stroke-width:1.00747669"
         transform="matrix(0.99257887,0,0,0.99257884,0.49998879,-28.169245)"
         id="g4917">
        <path
           style="color:#000000;display:inline;overflow:visible;visibility:visible;fill:url(#linearGradient4941);fill-opacity:1;fill-rule:evenodd;stroke:none;stroke-width:0.99999988;stroke-linecap:round;stroke-linejoin:round;stroke-miterlimit:4;stroke-dasharray:none;stroke-dashoffset:0;stroke-opacity:1;marker:none;marker-start:none;marker-mid:none;marker-end:none;enable-background:accumulate"
           d="m 70.542969,598.97461 c -0.334431,5.54321 -0.03868,10.48625 4.140625,11.85937 1.785802,0.58675 2.88494,-1.68382 4.205078,-3.51367 z m -15.429688,7.56641 -4.201172,15.67968 c 0.543459,3.46473 0.589082,8.05779 3.203125,9.18164 2.600769,1.11814 6.743407,-0.16316 8.0625,-2.66796 3.618414,-6.87092 -2.459611,-14.52869 -7.064453,-22.19336 z M 88.3125,616.74414 c -2.396564,4.77642 -6.068701,9.70989 -3.246094,13.25977 3.149518,3.96098 11.593949,3.97321 15.177734,0.40039 0.29862,-0.29771 0.55841,-0.61 0.80078,-0.92774 z m -39.767578,14.30469 -5.232422,19.52929 7.912109,-2.11914 c 2.902727,-4.59159 0.01659,-11.40022 -2.679687,-17.41015 z"
           transform="matrix(0.26656152,0,0,0.26656153,-186.87438,110.17188)"
           id="path4762"
           inkscape:connector-curvature="0" />
        <path
           style="color:#000000;display:inline;overflow:visible;visibility:visible;fill:url(#linearGradient4795);fill-opacity:1;fill-rule:evenodd;stroke:none;stroke-width:0.99999988;stroke-linecap:round;stroke-linejoin:round;stroke-miterlimit:4;stroke-dasharray:none;stroke-dashoffset:0;stroke-opacity:1;marker:none;marker-start:none;marker-mid:none;marker-end:none;enable-background:accumulate"
           d="M 122.14648,571.74414 70.808594,585.5 c 0.726644,3.76456 0.01488,8.82529 -0.265625,13.47461 l 8.345703,8.3457 c 0.738858,-1.02413 1.544424,-1.91458 2.583984,-2.07617 2.833588,-0.44047 6.626933,0.6695 7.988282,3.19336 1.329801,2.46534 0.331752,5.35658 -1.148438,8.30664 l 12.73242,12.73242 c 6.3401,-8.31162 -5.884025,-23.2558 -1.599608,-33.41992 3.714838,-8.81284 12.580988,-3.43375 20.687498,-16.79883 z"
           transform="matrix(0.26656152,0,0,0.26656153,-186.87438,110.17188)"
           id="path4762-7"
           inkscape:connector-curvature="0" />
        <path
           style="color:#000000;display:inline;overflow:visible;visibility:visible;fill:url(#linearGradient4832);fill-opacity:1;fill-rule:evenodd;stroke:none;stroke-width:0.99999988;stroke-linecap:round;stroke-linejoin:round;stroke-miterlimit:4;stroke-dasharray:none;stroke-dashoffset:0;stroke-opacity:1;marker:none;marker-start:none;marker-mid:none;marker-end:none;enable-background:accumulate"
           d="m 76.632812,526.22852 -14.472656,54.01171 c 1.634555,-0.48786 3.281227,-0.54214 4.81836,0.0352 2.262234,0.84963 3.354172,2.75906 3.830078,5.22461 l 51.337886,-13.75586 z"
           transform="matrix(0.26656152,0,0,0.26656153,-186.87438,110.17188)"
           id="path4762-7-2"
           inkscape:connector-curvature="0" />
        <path
           style="color:#000000;display:inline;overflow:visible;visibility:visible;fill:url(#linearGradient4844);fill-opacity:1;fill-rule:evenodd;stroke:none;stroke-width:0.99999988;stroke-linecap:round;stroke-linejoin:round;stroke-miterlimit:4;stroke-dasharray:none;stroke-dashoffset:0;stroke-opacity:1;marker:none;marker-start:none;marker-mid:none;marker-end:none;enable-background:accumulate"
           d="M 51.476562,590.67969 -2.2011719,605.0625 43.3125,650.57812 48.544922,631.04883 c -2.890078,-6.44192 -5.555986,-11.96327 -0.619141,-12.82617 1.977724,-0.34569 2.602736,1.55169 2.986328,3.99609 l 4.199219,-15.67773 c -3.133474,-5.21574 -5.590047,-10.43559 -3.818359,-15.41407 0.05263,-0.1479 0.124396,-0.29816 0.183593,-0.44726 z"
           transform="matrix(0.26656152,0,0,0.26656153,-186.87438,110.17188)"
           id="path4762-7-3"
           inkscape:connector-curvature="0" />
        <path
           style="color:#000000;display:inline;overflow:visible;visibility:visible;fill:url(#linearGradient4881);fill-opacity:1;fill-rule:evenodd;stroke:none;stroke-width:0.99999988;stroke-linecap:round;stroke-linejoin:round;stroke-miterlimit:4;stroke-dasharray:none;stroke-dashoffset:0;stroke-opacity:1;marker:none;marker-start:none;marker-mid:none;marker-end:none;enable-background:accumulate"
           d="M 14.457031,542.88867 -2.2011719,605.0625 51.476562,590.67969 c 0.87159,-2.19523 2.432341,-4.49385 4.361329,-6.41211 z"
           transform="matrix(0.26656152,0,0,0.26656153,-186.87438,110.17188)"
           id="path4762-7-3-9"
           inkscape:connector-curvature="0" />
        <path
           style="color:#000000;display:inline;overflow:visible;visibility:visible;fill:url(#linearGradient4906);fill-opacity:1;fill-rule:evenodd;stroke:none;stroke-width:0.99999988;stroke-linecap:round;stroke-linejoin:round;stroke-miterlimit:4;stroke-dasharray:none;stroke-dashoffset:0;stroke-opacity:1;marker:none;marker-start:none;marker-mid:none;marker-end:none;enable-background:accumulate"
           d="m 76.632812,526.22852 -62.175781,16.66015 41.38086,41.37891 c 1.875549,-1.86512 4.085,-3.35959 6.322265,-4.02735 z"
           transform="matrix(0.26656152,0,0,0.26656153,-186.87438,110.17188)"
           id="path4762-7-3-9-2"
           inkscape:connector-curvature="0" />
      </g>
      <path
         style="color:#000000;display:inline;overflow:visible;visibility:visible;fill:none;fill-opacity:1;fill-rule:evenodd;stroke:#000000;stroke-width:4.4031496;stroke-linecap:round;stroke-linejoin:round;stroke-miterlimit:4;stroke-dasharray:none;stroke-dashoffset:0;stroke-opacity:1;marker:none;marker-start:none;marker-mid:none;marker-end:none;enable-background:accumulate"
         d="M 76.042969,528.43164 16.070312,544.5 0,604.47266 43.902344,648.375 l 8.273437,-2.2168 c 2.376527,-9.98475 -13.074074,-26.3932 -4.25,-27.93554 4.78114,-0.8357 1.73048,11.26263 6.189453,13.17968 2.600769,1.11814 6.743407,-0.16316 8.0625,-2.66796 6.080844,-11.54676 -15.260098,-25.31266 -10.884765,-37.60743 2.131578,-5.98979 9.73366,-13.08692 15.685547,-10.85156 9.834595,3.69358 -2.275369,27.27948 7.705078,30.55859 2.785285,0.91514 3.892092,-5.13955 6.789062,-5.58984 2.833588,-0.44047 6.626933,0.6695 7.988282,3.19336 3.482872,6.45694 -8.960466,15.82402 -4.394532,21.56641 3.149518,3.96098 11.593949,3.97321 15.177734,0.40039 8.11007,-8.08532 -5.247029,-23.79499 -0.798828,-34.34766 3.228998,-7.66027 10.349338,-4.6059 17.480468,-12.45117 l 3.01953,-11.27149 z"
         transform="matrix(0.26458333,0,0,0.26458333,-184.98757,81.185031)"
         id="path4601-5"
         inkscape:connector-curvature="0" />
    </g>
    <g
       id="g3379"
       inkscape:export-filename="/home/warr/git/gitlab.com/sztest/nodecore/mods/nc_player_hud/textures/nc_player_hud_sel_injury.png"
       inkscape:export-xdpi="395.28"
       inkscape:export-ydpi="395.28"
       mask="url(#mask1696)">
      <path
         id="path4762-0"
         d="m -169.14306,291.47595 -4.38474,16.36386 16.45015,-4.40801 -5.00538,-5.00537 -3.50572,-0.21239 -0.10542,4.43797 -1.79628,-4.01526 1.57975,-4.038 -2.9223,-2.9223 z"
         style="color:#000000;display:inline;overflow:visible;visibility:visible;fill:url(#linearGradient4941-9);fill-opacity:1;fill-rule:evenodd;stroke:none;stroke-width:0.26458329;stroke-linecap:round;stroke-linejoin:round;stroke-miterlimit:4;stroke-dasharray:none;stroke-dashoffset:0;stroke-opacity:1;marker:none;marker-start:none;marker-mid:none;marker-end:none;enable-background:accumulate"
         inkscape:connector-curvature="0" />
      <path
         id="path4762-7-6"
         d="m -152.66965,286.98165 -13.22503,3.54397 3.15898,1.98231 -1.47949,3.69796 5.60069,2.43086 -3.46853,-0.21032 5.00538,5.00537 z m -16.16335,4.6948 2.9223,2.9223 0.32195,-0.8232 z"
         style="color:#000000;display:inline;overflow:visible;visibility:visible;fill:url(#linearGradient2578);fill-opacity:1;fill-rule:evenodd;stroke:none;stroke-width:0.26458329;stroke-linecap:round;stroke-linejoin:round;stroke-miterlimit:4;stroke-dasharray:none;stroke-dashoffset:0;stroke-opacity:1;marker:none;marker-start:none;marker-mid:none;marker-end:none;enable-background:accumulate"
         inkscape:connector-curvature="0" />
      <path
         id="path4762-7-2-1"
         d="m -164.71181,274.93949 -1.39009,5.18728 c -0.0403,0.46388 -0.0806,0.92776 -0.12092,1.39165 l -0.36432,0.41961 -1.77922,6.6399 0.24184,0.54829 2.22984,1.3994 13.22503,-3.54397 z"
         style="color:#000000;display:inline;overflow:visible;visibility:visible;fill:url(#linearGradient2580);fill-opacity:1;fill-rule:evenodd;stroke:none;stroke-width:0.26458329;stroke-linecap:round;stroke-linejoin:round;stroke-miterlimit:4;stroke-dasharray:none;stroke-dashoffset:0;stroke-opacity:1;marker:none;marker-start:none;marker-mid:none;marker-end:none;enable-background:accumulate"
         inkscape:connector-curvature="0" />
      <path
         id="path4762-7-3-5"
         d="m -169.1813,291.45114 -6.97425,2.53576 -1.05678,6.23477 -0.61909,-6.4978 -7.73854,2.07378 12.04216,12.04216 4.38474,-16.36386 z"
         style="color:#000000;display:inline;overflow:visible;visibility:visible;fill:url(#linearGradient2582);fill-opacity:1;fill-rule:evenodd;stroke:none;stroke-width:0.26458329;stroke-linecap:round;stroke-linejoin:round;stroke-miterlimit:4;stroke-dasharray:none;stroke-dashoffset:0;stroke-opacity:1;marker:none;marker-start:none;marker-mid:none;marker-end:none;enable-background:accumulate"
         inkscape:connector-curvature="0" />
      <path
         id="path4762-7-3-9-5"
         d="m -181.16248,279.34697 -4.40748,16.45068 7.73854,-2.07378 -0.015,-0.15968 6.34018,-4.22661 -1.1281,-1.46245 z"
         style="color:#000000;display:inline;overflow:visible;visibility:visible;fill:url(#linearGradient2584);fill-opacity:1;fill-rule:evenodd;stroke:none;stroke-width:0.26458329;stroke-linecap:round;stroke-linejoin:round;stroke-miterlimit:4;stroke-dasharray:none;stroke-dashoffset:0;stroke-opacity:1;marker:none;marker-start:none;marker-mid:none;marker-end:none;enable-background:accumulate"
         inkscape:connector-curvature="0" />
      <path
         id="path4762-7-3-9-2-4"
         d="m -164.71181,274.93949 -0.96118,0.25735 -0.42891,4.92993 z m -10.34665,2.77192 -6.10402,1.63556 8.52816,8.52816 -1.72496,-2.23604 2.6417,-2.95847 z m 8.47132,4.22662 -3.12281,3.59564 1.34359,3.04426 z"
         style="color:#000000;display:inline;overflow:visible;visibility:visible;fill:url(#linearGradient2586);fill-opacity:1;fill-rule:evenodd;stroke:none;stroke-width:0.26458329;stroke-linecap:round;stroke-linejoin:round;stroke-miterlimit:4;stroke-dasharray:none;stroke-dashoffset:0;stroke-opacity:1;marker:none;marker-start:none;marker-mid:none;marker-end:none;enable-background:accumulate"
         inkscape:connector-curvature="0" />
      <path
         id="path4601-5-7"
         d="m -164.86787,275.52188 -0.85318,0.22841 c -0.16719,1.92273 -0.33458,3.84539 -0.50177,5.76813 l -3.48713,4.01525 1.58543,3.59255 5.38882,3.38171 -1.47949,3.69796 5.60069,2.43086 -6.97425,-0.42271 -0.10542,4.43797 -1.79628,-4.01526 1.9017,-4.8612 -3.59255,-2.32441 -6.97425,2.53576 -1.05678,6.23477 -0.63407,-6.65748 6.34018,-4.22661 -2.85306,-3.69849 2.6417,-2.95847 -3.03289,-4.51084 -5.98516,1.60404 -4.25194,15.86725 11.61583,11.61634 15.86776,-4.25193 4.25194,-15.86777 z"
         style="color:#000000;display:inline;overflow:visible;visibility:visible;fill:none;fill-opacity:1;fill-rule:evenodd;stroke:#000000;stroke-width:1.16499996;stroke-linecap:round;stroke-linejoin:round;stroke-miterlimit:4;stroke-dasharray:none;stroke-dashoffset:0;stroke-opacity:1;marker:none;marker-start:none;marker-mid:none;marker-end:none;enable-background:accumulate"
         inkscape:connector-curvature="0" />
    </g>
    <g
       id="g1093-3"
       inkscape:export-filename="/home/warr/git/gitlab.com/sztest/nodecore/mods/nc_player_hud/textures/nc_player_hud_cursor.png"
       inkscape:export-xdpi="24.09"
       inkscape:export-ydpi="24.09"
       transform="matrix(0.93871818,0,0,0.93871818,-5.5597399,15.344261)"
       style="stroke-width:1.06528246;fill:none;fill-opacity:1;stroke:#ffffff;stroke-opacity:1;opacity:0.667">
      <path
         inkscape:connector-curvature="0"
         id="path1085-6"
         transform="matrix(0.26458333,0,0,0.26458333,-201.57008,217.93825)"
         d="m 387.93164,74.560547 -13.46484,3.607422 -3.60742,13.464843"
         style="opacity:1;vector-effect:none;fill:none;fill-opacity:1;stroke:#ffffff;stroke-width:8.05252934;stroke-linecap:round;stroke-linejoin:round;stroke-miterlimit:4;stroke-dasharray:none;stroke-dashoffset:0;stroke-opacity:1;paint-order:normal" />
      <path
         inkscape:connector-curvature="0"
         id="path1083-7"
         transform="matrix(0.26458333,0,0,0.26458333,-201.57008,217.93825)"
         d="m 361.79297,125.46289 -3.60742,13.46484 9.85547,9.85547"
         style="opacity:1;vector-effect:none;fill:none;fill-opacity:1;stroke:#ffffff;stroke-width:8.05252934;stroke-linecap:round;stroke-linejoin:round;stroke-miterlimit:4;stroke-dasharray:none;stroke-dashoffset:0;stroke-opacity:1;paint-order:normal" />
      <path
         inkscape:connector-curvature="0"
         id="path1081-5"
         transform="matrix(0.26458333,0,0,0.26458333,-201.57008,217.93825)"
         d="m 392.80859,173.55078 9.85547,9.85547 13.46485,-3.60742"
         style="opacity:1;vector-effect:none;fill:none;fill-opacity:1;stroke:#ffffff;stroke-width:8.05252934;stroke-linecap:round;stroke-linejoin:round;stroke-miterlimit:4;stroke-dasharray:none;stroke-dashoffset:0;stroke-opacity:1;paint-order:normal" />
      <path
         inkscape:connector-curvature="0"
         id="path1079-3"
         transform="matrix(0.26458333,0,0,0.26458333,-201.57008,217.93825)"
         d="m 449.95898,170.73242 13.46485,-3.60742 3.60742,-13.46484"
         style="opacity:1;vector-effect:none;fill:none;fill-opacity:1;stroke:#ffffff;stroke-width:8.05252934;stroke-linecap:round;stroke-linejoin:round;stroke-miterlimit:4;stroke-dasharray:none;stroke-dashoffset:0;stroke-opacity:1;paint-order:normal" />
      <path
         inkscape:connector-curvature="0"
         id="path1077-5"
         transform="matrix(0.26458333,0,0,0.26458333,-201.57008,217.93825)"
         d="m 476.09766,119.83008 3.60742,-13.46485 -9.85547,-9.855464"
         style="opacity:1;vector-effect:none;fill:none;fill-opacity:1;stroke:#ffffff;stroke-width:8.05252934;stroke-linecap:round;stroke-linejoin:round;stroke-miterlimit:4;stroke-dasharray:none;stroke-dashoffset:0;stroke-opacity:1;paint-order:normal" />
      <path
         inkscape:connector-curvature="0"
         id="path1035-6"
         transform="matrix(0.26458333,0,0,0.26458333,-201.57008,217.93825)"
         d="m 445.08203,71.742188 -9.85547,-9.855469 -13.46484,3.607422"
         style="opacity:1;vector-effect:none;fill:none;fill-opacity:1;stroke:#ffffff;stroke-width:8.05252934;stroke-linecap:round;stroke-linejoin:round;stroke-miterlimit:4;stroke-dasharray:none;stroke-dashoffset:0;stroke-opacity:1;paint-order:normal" />
    </g>
    <g
       id="g1093"
       inkscape:export-filename="/home/warr/git/gitlab.com/sztest/nodecore/mods/nc_player_hud/textures/nc_player_hud_cursor.png"
       inkscape:export-xdpi="24.09"
       inkscape:export-ydpi="24.09"
       style="opacity:0.8">
      <path
         id="path1085"
         transform="matrix(0.26458333,0,0,0.26458333,-201.57008,217.93825)"
         d="m 387.93164,74.560547 -13.46484,3.607422 -3.60742,13.464843"
         style="opacity:1;vector-effect:none;fill:none;fill-opacity:1;stroke:#000000;stroke-width:7.55905522;stroke-linecap:round;stroke-linejoin:round;stroke-miterlimit:4;stroke-dasharray:none;stroke-dashoffset:0;stroke-opacity:1;paint-order:normal" />
      <path
         id="path1083"
         transform="matrix(0.26458333,0,0,0.26458333,-201.57008,217.93825)"
         d="m 361.79297,125.46289 -3.60742,13.46484 9.85547,9.85547"
         style="opacity:1;vector-effect:none;fill:none;fill-opacity:1;stroke:#000000;stroke-width:7.55905522;stroke-linecap:round;stroke-linejoin:round;stroke-miterlimit:4;stroke-dasharray:none;stroke-dashoffset:0;stroke-opacity:1;paint-order:normal" />
      <path
         id="path1081"
         transform="matrix(0.26458333,0,0,0.26458333,-201.57008,217.93825)"
         d="m 392.80859,173.55078 9.85547,9.85547 13.46485,-3.60742"
         style="opacity:1;vector-effect:none;fill:none;fill-opacity:1;stroke:#000000;stroke-width:7.55905522;stroke-linecap:round;stroke-linejoin:round;stroke-miterlimit:4;stroke-dasharray:none;stroke-dashoffset:0;stroke-opacity:1;paint-order:normal" />
      <path
         id="path1079"
         transform="matrix(0.26458333,0,0,0.26458333,-201.57008,217.93825)"
         d="m 449.95898,170.73242 13.46485,-3.60742 3.60742,-13.46484"
         style="opacity:1;vector-effect:none;fill:none;fill-opacity:1;stroke:#000000;stroke-width:7.55905522;stroke-linecap:round;stroke-linejoin:round;stroke-miterlimit:4;stroke-dasharray:none;stroke-dashoffset:0;stroke-opacity:1;paint-order:normal" />
      <path
         id="path1077"
         transform="matrix(0.26458333,0,0,0.26458333,-201.57008,217.93825)"
         d="m 476.09766,119.83008 3.60742,-13.46485 -9.85547,-9.855464"
         style="opacity:1;vector-effect:none;fill:none;fill-opacity:1;stroke:#000000;stroke-width:7.55905522;stroke-linecap:round;stroke-linejoin:round;stroke-miterlimit:4;stroke-dasharray:none;stroke-dashoffset:0;stroke-opacity:1;paint-order:normal" />
      <path
         id="path1035"
         transform="matrix(0.26458333,0,0,0.26458333,-201.57008,217.93825)"
         d="m 445.08203,71.742188 -9.85547,-9.855469 -13.46484,3.607422"
         style="opacity:1;vector-effect:none;fill:none;fill-opacity:1;stroke:#000000;stroke-width:7.55905522;stroke-linecap:round;stroke-linejoin:round;stroke-miterlimit:4;stroke-dasharray:none;stroke-dashoffset:0;stroke-opacity:1;paint-order:normal" />
    </g>
    <g
       id="g3418"
       inkscape:export-filename="/home/warr/git/gitlab.com/sztest/nodecore/mods/nc_player_hud/textures/nc_player_hud_sel.png"
       inkscape:export-xdpi="395.28"
       inkscape:export-ydpi="395.28"
       style="opacity:0.5">
      <path
         inkscape:transform-center-x="-1.2819443"
         transform="matrix(1.2005977,-0.32169918,0.32169918,1.2005977,-47.915352,-86.565797)"
         inkscape:transform-center-y="-1.2819498"
         d="m -164.35474,236.61671 6.85084,11.866 -13.70167,0 z"
         inkscape:randomized="0"
         inkscape:rounded="0"
         inkscape:flatsided="true"
         sodipodi:arg2="-0.52359878"
         sodipodi:arg1="-1.5707963"
         sodipodi:r2="3.9553335"
         sodipodi:r1="7.9106669"
         sodipodi:cy="244.52737"
         sodipodi:cx="-164.35474"
         sodipodi:sides="3"
         id="path4762-73"
         style="color:#000000;display:inline;overflow:visible;visibility:visible;fill:url(#linearGradient4941-7);fill-opacity:1;fill-rule:evenodd;stroke:none;stroke-width:0.21286719;stroke-linecap:round;stroke-linejoin:round;stroke-miterlimit:4;stroke-dasharray:none;stroke-dashoffset:0;stroke-opacity:1;marker:none;marker-start:none;marker-mid:none;marker-end:none;enable-background:accumulate"
         sodipodi:type="star" />
      <path
         inkscape:transform-center-x="-8.2865972"
         transform="matrix(0.32169918,-1.2005977,1.2005977,0.32169918,-400.32855,-23.054845)"
         inkscape:transform-center-y="3.8458248"
         d="m -164.35474,236.61671 6.85084,11.866 -13.70167,0 z"
         inkscape:randomized="0"
         inkscape:rounded="0"
         inkscape:flatsided="true"
         sodipodi:arg2="-0.52359878"
         sodipodi:arg1="-1.5707963"
         sodipodi:r2="3.9553335"
         sodipodi:r1="7.9106669"
         sodipodi:cy="244.52737"
         sodipodi:cx="-164.35474"
         sodipodi:sides="3"
         id="path4762-7-65"
         style="color:#000000;display:inline;overflow:visible;visibility:visible;fill:url(#linearGradient3204);fill-opacity:1;fill-rule:evenodd;stroke:none;stroke-width:0.21286719;stroke-linecap:round;stroke-linejoin:round;stroke-miterlimit:4;stroke-dasharray:none;stroke-dashoffset:0;stroke-opacity:1;marker:none;marker-start:none;marker-mid:none;marker-end:none;enable-background:accumulate"
         sodipodi:type="star" />
      <path
         inkscape:transform-center-x="-8.2866009"
         transform="matrix(-0.87889851,-0.87889848,0.87889851,-0.87889848,-521.53305,313.89941)"
         inkscape:transform-center-y="-8.2865934"
         d="m -164.35474,236.61671 6.85084,11.866 -13.70167,0 z"
         inkscape:randomized="0"
         inkscape:rounded="0"
         inkscape:flatsided="true"
         sodipodi:arg2="-0.52359878"
         sodipodi:arg1="-1.5707963"
         sodipodi:r2="3.9553335"
         sodipodi:r1="7.9106669"
         sodipodi:cy="244.52737"
         sodipodi:cx="-164.35474"
         sodipodi:sides="3"
         id="path4762-7-2-6"
         style="color:#000000;display:inline;overflow:visible;visibility:visible;fill:url(#linearGradient3206);fill-opacity:1;fill-rule:evenodd;stroke:none;stroke-width:0.21286719;stroke-linecap:round;stroke-linejoin:round;stroke-miterlimit:4;stroke-dasharray:none;stroke-dashoffset:0;stroke-opacity:1;marker:none;marker-start:none;marker-mid:none;marker-end:none;enable-background:accumulate"
         sodipodi:type="star" />
      <path
         inkscape:transform-center-x="8.286596"
         transform="matrix(0.87889851,0.87889848,-0.87889851,0.87889848,183.29333,186.87752)"
         inkscape:transform-center-y="8.2865958"
         d="m -164.35474,236.61671 6.85084,11.866 -13.70167,0 z"
         inkscape:randomized="0"
         inkscape:rounded="0"
         inkscape:flatsided="true"
         sodipodi:arg2="-0.52359878"
         sodipodi:arg1="-1.5707963"
         sodipodi:r2="3.9553335"
         sodipodi:r1="7.9106669"
         sodipodi:cy="244.52737"
         sodipodi:cx="-164.35474"
         sodipodi:sides="3"
         id="path4762-7-3-3"
         style="color:#000000;display:inline;overflow:visible;visibility:visible;fill:url(#linearGradient3208);fill-opacity:1;fill-rule:evenodd;stroke:none;stroke-width:0.21286719;stroke-linecap:round;stroke-linejoin:round;stroke-miterlimit:4;stroke-dasharray:none;stroke-dashoffset:0;stroke-opacity:1;marker:none;marker-start:none;marker-mid:none;marker-end:none;enable-background:accumulate"
         sodipodi:type="star" />
      <path
         inkscape:transform-center-x="8.286598"
         transform="matrix(-0.32169918,1.2005977,-1.2005977,-0.32169916,62.088825,523.83176)"
         inkscape:transform-center-y="-3.8458277"
         d="m -164.35474,236.61671 6.85084,11.866 -13.70167,0 z"
         inkscape:randomized="0"
         inkscape:rounded="0"
         inkscape:flatsided="true"
         sodipodi:arg2="-0.52359878"
         sodipodi:arg1="-1.5707963"
         sodipodi:r2="3.9553335"
         sodipodi:r1="7.9106669"
         sodipodi:cy="244.52737"
         sodipodi:cx="-164.35474"
         sodipodi:sides="3"
         id="path4762-7-3-9-9"
         style="color:#000000;display:inline;overflow:visible;visibility:visible;fill:url(#linearGradient3210);fill-opacity:1;fill-rule:evenodd;stroke:none;stroke-width:0.21286719;stroke-linecap:round;stroke-linejoin:round;stroke-miterlimit:4;stroke-dasharray:none;stroke-dashoffset:0;stroke-opacity:1;marker:none;marker-start:none;marker-mid:none;marker-end:none;enable-background:accumulate"
         sodipodi:type="star" />
      <path
         inkscape:transform-center-x="3.8458183"
         transform="matrix(-1.2005977,0.32169918,-0.32169918,-1.2005977,-290.32437,587.34271)"
         inkscape:transform-center-y="-8.2865989"
         d="m -164.35474,236.61671 6.85084,11.866 -13.70167,0 z"
         inkscape:randomized="0"
         inkscape:rounded="0"
         inkscape:flatsided="true"
         sodipodi:arg2="-0.52359878"
         sodipodi:arg1="-1.5707963"
         sodipodi:r2="3.9553335"
         sodipodi:r1="7.9106669"
         sodipodi:cy="244.52737"
         sodipodi:cx="-164.35474"
         sodipodi:sides="3"
         id="path4762-7-3-9-2-48"
         style="color:#000000;display:inline;overflow:visible;visibility:visible;fill:url(#linearGradient3212);fill-opacity:1;fill-rule:evenodd;stroke:none;stroke-width:0.21286719;stroke-linecap:round;stroke-linejoin:round;stroke-miterlimit:4;stroke-dasharray:none;stroke-dashoffset:0;stroke-opacity:1;marker:none;marker-start:none;marker-mid:none;marker-end:none;enable-background:accumulate"
         sodipodi:type="star" />
      <path
         sodipodi:type="star"
         style="color:#000000;display:inline;overflow:visible;visibility:visible;fill:none;fill-opacity:1;fill-rule:evenodd;stroke:#000000;stroke-width:1.35364652;stroke-linecap:round;stroke-linejoin:round;stroke-miterlimit:4;stroke-dasharray:none;stroke-dashoffset:0;stroke-opacity:1;marker:none;marker-start:none;marker-mid:none;marker-end:none;enable-background:accumulate"
         id="path4601-5-1"
         sodipodi:sides="6"
         sodipodi:cx="-177.22122"
         sodipodi:cy="190.00739"
         sodipodi:r1="19.087534"
         sodipodi:r2="16.530289"
         sodipodi:arg1="-0.52359878"
         sodipodi:arg2="-4.4017012e-09"
         inkscape:flatsided="true"
         inkscape:rounded="0"
         inkscape:randomized="0"
         d="m -160.69093,180.46362 0,19.08753 -16.53029,9.54377 -16.53029,-9.54377 0,-19.08753 16.53029,-9.54377 z"
         inkscape:transform-center-x="-3.3205021e-06"
         transform="matrix(-0.83131271,-0.22274957,-0.22274957,0.83131271,-274.12205,52.956959)"
         inkscape:transform-center-y="-2.8249933e-06"
         inkscape:export-filename="/home/warr/.minetest/games/nodecore/mods/nc_player_hud/textures/nc_player_hud_sel.png"
         inkscape:export-xdpi="24.704863"
         inkscape:export-ydpi="24.704863" />
    </g>
  </g>
</svg>
